Data Programming Project
…
## 
## Attaching package: 'MASS'

## The following object is masked from 'package:dplyr':
## 
##     select

library(jmv)

#Importing data set
nba.stats <- gsheet2tbl("https://docs.google.com/spreadsheets/d/1243nKIvCIjlmFDkyVQKft5qarpda-iCLIOrS7Roxkx8/edit?usp=sharing")

nba.stats

## # A tibble: 120 x 35
##    season  team        games.played  wins losses minutes.played offensive.rating
##    <chr>   <chr>              <dbl> <dbl>  <dbl>          <dbl>            <dbl>
##  1 2016-17 Dallas Mav           82    33     49           3956             105.
##  2 2016-17 New Orlean           82    34     48           3981             105.
##  3 2016-17 Brooklyn N           82    20     62           3951             104.
##  4 2016-17 Charlotte            82    36     46           3966             108.
##  5 2016-17 Indiana Pa           82    42     40           3971             108.
##  6 2016-17 LA Clippers           82    51     31           3951             112.
##  7 2016-17 Sacramento           82    32     50           3976             107.
##  8 2016-17 Boston Cel           82    53     29           3951             111.
##  9 2016-17 Milwaukee            82    42     40           3956             108.
## 10 2016-17 Cleveland            82    51     31           3976             113.
## #  with 110 more rows, and 28 more variables: defensive.rating <dbl>,
## #   net.rating <dbl>, assist.percentage <dbl>, assist.to.turnovers <dbl>,
## #   assist.ratio <chr>, offensive.rebound.percentage <dbl>,
## #   defensive.rebound.percentage <dbl>, rebound.percentage <dbl>,
## #   turnover.percentage <dbl>, effective.field.goal.percentage <dbl>,
## #   true.shooting.percentage <dbl>, pace <dbl>, player.impact.estimate <dbl>,
## #   possessions <dbl>, minutes.played.hustle <dbl>, screen.assists <dbl>,
## #   screen.assists.points <dbl>, deflections <dbl>,
## #   offensive.loose.balls.recovered <dbl>,
…
